{
    "members": {
        "201507": {
            "id": "201507",
            "completion_day_level": {
                "3": {
                    "1": {
                        "get_star_ts": "2017-12-04T02:04:44-0500"
                    }
                },
                "4": {
                    "2": {
                        "get_star_ts": "2017-12-04T02:34:45-0500"
                    },
                    "1": {
                        "get_star_ts": "2017-12-04T02:11:34-0500"
                    }
                },
                "1": {
                    "2": {
                        "get_star_ts": "2017-12-01T02:52:59-0500"
                    },
                    "1": {
                        "get_star_ts": "2017-12-01T02:48:00-0500"
                    }
                },
                "2": {
                    "2": {
                        "get_star_ts": "2017-12-04T01:36:31-0500"
                    },
                    "1": {
                        "get_star_ts": "2017-12-04T01:29:39-0500"
                    }
                }
            },
            "name": "Serge Meunier",
            "local_score": 39,
            "last_star_ts": "2017-12-04T02:34:45-0500",
            "global_score": 0,
            "stars": 7
        },
        "201932": {
            "name": "PsiOps",
            "local_score": 18,
            "completion_day_level": {
                "1": {
                    "1": {
                        "get_star_ts": "2017-12-01T03:30:08-0500"
                    },
                    "2": {
                        "get_star_ts": "2017-12-01T03:42:24-0500"
                    }
                },
                "2": {
                    "2": {
                        "get_star_ts": "2017-12-03T10:06:54-0500"
                    },
                    "1": {
                        "get_star_ts": "2017-12-02T08:41:40-0500"
                    }
                }
            },
            "id": "201932",
            "last_star_ts": "2017-12-03T10:06:54-0500",
            "stars": 4,
            "global_score": 0
        },
        "210229": {
            "name": "jeroenpot",
            "local_score": 28,
            "id": "210229",
            "completion_day_level": {
                "4": {
                    "1": {
                        "get_star_ts": "2017-12-04T02:09:50-0500"
                    }
                },
                "2": {
                    "2": {
                        "get_star_ts": "2017-12-02T06:04:32-0500"
                    },
                    "1": {
                        "get_star_ts": "2017-12-02T05:46:54-0500"
                    }
                },
                "1": {
                    "2": {
                        "get_star_ts": "2017-12-02T06:33:03-0500"
                    },
                    "1": {
                        "get_star_ts": "2017-12-01T09:29:42-0500"
                    }
                }
            },
            "last_star_ts": "2017-12-04T02:09:50-0500",
            "global_score": 0,
            "stars": 5
        },
        "209060": {
            "id": "209060",
            "completion_day_level": {
                "2": {
                    "2": {
                        "get_star_ts": "2017-12-02T06:31:28-0500"
                    },
                    "1": {
                        "get_star_ts": "2017-12-02T06:05:28-0500"
                    }
                },
                "1": {
                    "1": {
                        "get_star_ts": "2017-12-01T08:06:58-0500"
                    },
                    "2": {
                        "get_star_ts": "2017-12-01T08:15:28-0500"
                    }
                },
                "3": {
                    "1": {
                        "get_star_ts": "2017-12-03T10:50:18-0500"
                    },
                    "2": {
                        "get_star_ts": "2017-12-03T13:02:44-0500"
                    }
                }
            },
            "local_score": 33,
            "name": null,
            "stars": 6,
            "global_score": 0,
            "last_star_ts": "2017-12-03T13:02:44-0500"
        },
        "99998": {
            "completion_day_level": {
                "2": {
                    "1": {
                        "get_star_ts": "2017-12-02T05:55:09-0500"
                    },
                    "2": {
                        "get_star_ts": "2017-12-02T06:34:28-0500"
                    }
                },
                "1": {
                    "2": {
                        "get_star_ts": "2017-12-01T02:35:03-0500"
                    },
                    "1": {
                        "get_star_ts": "2017-12-01T02:33:00-0500"
                    }
                },
                "3": {
                    "2": {
                        "get_star_ts": "2017-12-03T11:32:52-0500"
                    },
                    "1": {
                        "get_star_ts": "2017-12-03T07:27:16-0500"
                    }
                },
                "4": {
                    "1": {
                        "get_star_ts": "2017-12-04T02:45:45-0500"
                    },
                    "2": {
                        "get_star_ts": "2017-12-04T02:49:50-0500"
                    }
                }
            },
            "id": "99998",
            "local_score": 58,
            "name": "Teun",
            "stars": 8,
            "global_score": 0,
            "last_star_ts": "2017-12-04T02:49:50-0500"
        },
        "137963": {
            "completion_day_level": {},
            "id": "137963",
            "local_score": 0,
            "name": "Ewout Verwijnen",
            "stars": 0,
            "global_score": 0,
            "last_star_ts": "1969-12-31T19:00:00-0500"
        },
        "128493": {
            "local_score": 23,
            "name": "Tom Kamphuis",
            "completion_day_level": {
                "1": {
                    "1": {
                        "get_star_ts": "2017-12-01T03:59:14-0500"
                    },
                    "2": {
                        "get_star_ts": "2017-12-01T04:20:36-0500"
                    }
                },
                "2": {
                    "2": {
                        "get_star_ts": "2017-12-02T07:47:00-0500"
                    },
                    "1": {
                        "get_star_ts": "2017-12-02T07:33:46-0500"
                    }
                },
                "3": {
                    "1": {
                        "get_star_ts": "2017-12-04T02:15:53-0500"
                    }
                }
            },
            "id": "128493",
            "global_score": 0,
            "stars": 5,
            "last_star_ts": "2017-12-04T02:15:53-0500"
        },
        "36900": {
            "completion_day_level": {
                "2": {
                    "1": {
                        "get_star_ts": "2017-12-02T07:47:03-0500"
                    },
                    "2": {
                        "get_star_ts": "2017-12-02T08:56:51-0500"
                    }
                },
                "1": {
                    "1": {
                        "get_star_ts": "2017-12-01T03:43:43-0500"
                    },
                    "2": {
                        "get_star_ts": "2017-12-01T04:07:57-0500"
                    }
                }
            },
            "id": "36900",
            "name": "diggingforfire",
            "local_score": 18,
            "last_star_ts": "2017-12-02T08:56:51-0500",
            "global_score": 0,
            "stars": 4
        }
    },
    "event": "2017",
    "owner_id": "99998"
}